1,1,Guard 1,Guard,9526545212,heenapatel691991@gmail.com,2,0000-00-00 00:00:00,01-02-2022 17:52,1,01-02-2022 17:52,0,0,0
2,1,Guard 2,Guard,9526545212,heenapatel691991@gmail.com,2,0000-00-00 00:00:00,01-02-2022 19:18,1,01-02-2022 19:18,0,0,0
3,1,Guard 3,Guard,9526545212,heenapatel691991@gmail.com,2,0000-00-00 00:00:00,01-02-2022 19:18,1,01-02-2022 19:18,0,0,0
4,1,Guard 4,Guard,9526545212,heenapatel691991@gmail.com,2,0000-00-00 00:00:00,01-02-2022 19:18,1,01-02-2022 19:18,0,0,0
5,1,Guard 5,Guard,9526545212,heenapatel691991@gmail.com,2,0000-00-00 00:00:00,01-02-2022 19:19,1,01-02-2022 19:19,0,0,0
6,1,Guard 6,Guard,9526545212,heenapatel691991@gmail.com,2,0000-00-00 00:00:00,01-02-2022 19:19,1,01-02-2022 19:19,0,0,0
7,1,Guard 7,Guard,9526545212,heenapatel691991@gmail.com,2,0000-00-00 00:00:01,02-02-2022 19:19,1,02-02-2022 19:19,0,0,0
8,1,Guard 8,Guard,9526545212,heenapatel691991@gmail.com,2,0000-00-00 00:00:02,03-02-2022 19:19,1,03-02-2022 19:19,0,0,0
9,1,Guard 9,Guard,9526545212,heenapatel691991@gmail.com,2,0000-00-00 00:00:03,04-02-2022 19:19,1,04-02-2022 19:19,0,0,0
10,1,Guard 10,Guard,9526545212,heenapatel691991@gmail.com,2,0000-00-00 00:00:04,05-02-2022 19:19,1,05-02-2022 19:19,0,0,0
11,1,Guard 11,Guard,9526545212,heenapatel691991@gmail.com,2,0000-00-00 00:00:05,06-02-2022 19:19,1,06-02-2022 19:19,0,0,0
12,1,Guard 12,Guard,9526545212,heenapatel691991@gmail.com,2,0000-00-00 00:00:06,07-02-2022 19:19,1,07-02-2022 19:19,0,0,0
13,1,Guard 13,Guard,9526545212,heenapatel691991@gmail.com,2,0000-00-00 00:00:07,08-02-2022 19:19,1,08-02-2022 19:19,0,0,0
14,1,Guard 14,Guard,9526545212,heenapatel691991@gmail.com,2,0000-00-00 00:00:08,09-02-2022 19:19,1,09-02-2022 19:19,0,0,0
15,1,Guard 15,Guard,9526545212,heenapatel691991@gmail.com,2,0000-00-00 00:00:09,10-02-2022 19:19,1,10-02-2022 19:19,0,0,0
16,1,Guard 16,Guard,9526545212,heenapatel691991@gmail.com,2,0000-00-00 00:00:10,11-02-2022 19:19,1,11-02-2022 19:19,0,0,0
17,1,Guard 17,Guard,9526545212,heenapatel691991@gmail.com,2,0000-00-00 00:00:11,12-02-2022 19:19,1,12-02-2022 19:19,0,0,0
18,1,Guard 18,Guard,9526545212,heenapatel691991@gmail.com,2,0000-00-00 00:00:12,13-02-2022 19:19,1,13-02-2022 19:19,0,0,0
19,1,Guard 19,Guard,9526545212,heenapatel691991@gmail.com,2,0000-00-00 00:00:13,14-02-2022 19:19,1,14-02-2022 19:19,0,0,0
20,1,Guard 20,Guard,9526545212,heenapatel691991@gmail.com,2,0000-00-00 00:00:14,15-02-2022 19:19,1,15-02-2022 19:19,0,0,0
21,1,Guard 21,Guard,9526545212,heenapatel691991@gmail.com,2,0000-00-00 00:00:15,16-02-2022 19:19,1,16-02-2022 19:19,0,0,0
22,1,Guard 22,Guard,9526545212,heenapatel691991@gmail.com,2,0000-00-00 00:00:16,17-02-2022 19:19,1,17-02-2022 19:19,0,0,0
23,1,Guard 23,Guard,9526545212,heenapatel691991@gmail.com,2,0000-00-00 00:00:17,18-02-2022 19:19,1,18-02-2022 19:19,0,0,0
24,1,Guard 24,Guard,9526545212,heenapatel691991@gmail.com,2,0000-00-00 00:00:18,19-02-2022 19:19,1,19-02-2022 19:19,0,0,0
25,1,Guard 25,Guard,9526545212,heenapatel691991@gmail.com,2,0000-00-00 00:00:19,20-02-2022 19:19,1,20-02-2022 19:19,0,0,0
26,1,Guard 26,Guard,9526545212,heenapatel691991@gmail.com,2,0000-00-00 00:00:20,21-02-2022 19:19,1,21-02-2022 19:19,0,0,0
27,1,Guard 27,Guard,9526545212,heenapatel691991@gmail.com,2,0000-00-00 00:00:21,22-02-2022 19:19,1,22-02-2022 19:19,0,0,0
28,1,Guard 28,Guard,9526545212,heenapatel691991@gmail.com,2,0000-00-00 00:00:22,23-02-2022 19:19,1,23-02-2022 19:19,0,0,0
29,1,Guard 29,Guard,9526545212,heenapatel691991@gmail.com,2,0000-00-00 00:00:23,24-02-2022 19:19,1,24-02-2022 19:19,0,0,0
30,1,Guard 30,Guard,9526545212,heenapatel691991@gmail.com,2,0000-00-00 00:00:24,25-02-2022 19:19,1,25-02-2022 19:19,0,0,0
31,1,Guard 31,Guard,9526545212,heenapatel691991@gmail.com,2,0000-00-00 00:00:25,26-02-2022 19:19,1,26-02-2022 19:19,0,0,0
32,1,Guard 32,Guard,9526545212,heenapatel691991@gmail.com,2,0000-00-00 00:00:26,27-02-2022 19:19,1,27-02-2022 19:19,0,0,0
33,1,Guard 33,Guard,9526545212,heenapatel691991@gmail.com,2,0000-00-00 00:00:27,28-02-2022 19:19,1,28-02-2022 19:19,0,0,0
34,1,Guard 34,Guard,9526545212,heenapatel691991@gmail.com,2,0000-00-00 00:00:28,01-03-2022 19:19,1,01-03-2022 19:19,0,0,0
35,1,Guard 35,Guard,9526545212,heenapatel691991@gmail.com,2,0000-00-00 00:00:29,02-03-2022 19:19,1,02-03-2022 19:19,0,0,0
36,1,Guard 36,Guard,9526545212,heenapatel691991@gmail.com,2,0000-00-00 00:00:30,03-03-2022 19:19,1,03-03-2022 19:19,0,0,0
37,1,Guard 37,Guard,9526545212,heenapatel691991@gmail.com,2,0000-00-00 00:00:31,04-03-2022 19:19,1,04-03-2022 19:19,0,0,0
38,1,Guard 38,Guard,9526545212,heenapatel691991@gmail.com,2,0000-00-00 00:00:32,05-03-2022 19:19,1,05-03-2022 19:19,0,0,0
39,1,Guard 39,Guard,9526545212,heenapatel691991@gmail.com,2,0000-00-00 00:00:33,06-03-2022 19:19,1,06-03-2022 19:19,0,0,0
40,1,Guard 40,Guard,9526545212,heenapatel691991@gmail.com,2,0000-00-00 00:00:34,07-03-2022 19:19,1,07-03-2022 19:19,0,0,0
41,1,Guard 41,Guard,9526545212,heenapatel691991@gmail.com,2,0000-00-00 00:00:35,08-03-2022 19:19,1,08-03-2022 19:19,0,0,0
42,1,Guard 42,Guard,9526545212,heenapatel691991@gmail.com,2,0000-00-00 00:00:36,09-03-2022 19:19,1,09-03-2022 19:19,0,0,0
43,1,Guard 43,Guard,9526545212,heenapatel691991@gmail.com,2,0000-00-00 00:00:37,10-03-2022 19:19,1,10-03-2022 19:19,0,0,0
44,1,Guard 44,Guard,9526545212,heenapatel691991@gmail.com,2,0000-00-00 00:00:38,11-03-2022 19:19,1,11-03-2022 19:19,0,0,0
45,1,Guard 45,Guard,9526545212,heenapatel691991@gmail.com,2,0000-00-00 00:00:39,12-03-2022 19:19,1,12-03-2022 19:19,0,0,0
46,1,Guard 46,Guard,9526545212,heenapatel691991@gmail.com,2,0000-00-00 00:00:40,13-03-2022 19:19,1,13-03-2022 19:19,0,0,0
47,1,Guard 47,Guard,9526545212,heenapatel691991@gmail.com,2,0000-00-00 00:00:41,14-03-2022 19:19,1,14-03-2022 19:19,0,0,0
48,1,Guard 48,Guard,9526545212,heenapatel691991@gmail.com,2,0000-00-00 00:00:42,15-03-2022 19:19,1,15-03-2022 19:19,0,0,0
49,1,Guard 49,Guard,9526545212,heenapatel691991@gmail.com,2,0000-00-00 00:00:43,16-03-2022 19:19,1,16-03-2022 19:19,0,0,0
50,1,Guard 50,Guard,9526545212,heenapatel691991@gmail.com,2,0000-00-00 00:00:44,17-03-2022 19:19,1,17-03-2022 19:19,0,0,0
51,1,Guard 51,Guard,9526545212,heenapatel691991@gmail.com,2,0000-00-00 00:00:45,18-03-2022 19:19,1,18-03-2022 19:19,0,0,0
52,1,Guard 52,Guard,9526545212,heenapatel691991@gmail.com,2,0000-00-00 00:00:46,19-03-2022 19:19,1,19-03-2022 19:19,0,0,0
53,1,Guard 53,Guard,9526545212,heenapatel691991@gmail.com,2,0000-00-00 00:00:47,20-03-2022 19:19,1,20-03-2022 19:19,0,0,0
54,1,Guard 54,Guard,9526545212,heenapatel691991@gmail.com,2,0000-00-00 00:00:48,21-03-2022 19:19,1,21-03-2022 19:19,0,0,0
55,1,Guard 55,Guard,9526545212,heenapatel691991@gmail.com,2,0000-00-00 00:00:49,22-03-2022 19:19,1,22-03-2022 19:19,0,0,0
56,1,Guard 56,Guard,9526545212,heenapatel691991@gmail.com,2,0000-00-00 00:00:50,23-03-2022 19:19,1,23-03-2022 19:19,0,0,0
57,1,Guard 57,Guard,9526545212,heenapatel691991@gmail.com,2,0000-00-00 00:00:51,24-03-2022 19:19,1,24-03-2022 19:19,0,0,0
58,1,Guard 58,Guard,9526545212,heenapatel691991@gmail.com,2,0000-00-00 00:00:52,25-03-2022 19:19,1,25-03-2022 19:19,0,0,0
59,1,Guard 59,Guard,9526545212,heenapatel691991@gmail.com,2,0000-00-00 00:00:53,26-03-2022 19:19,1,26-03-2022 19:19,0,0,0
60,1,Guard 60,Guard,9526545212,heenapatel691991@gmail.com,2,0000-00-00 00:00:54,27-03-2022 19:19,1,27-03-2022 19:19,0,0,0
61,1,Guard 61,Guard,9526545212,heenapatel691991@gmail.com,2,0000-00-00 00:00:55,28-03-2022 19:19,1,28-03-2022 19:19,0,0,0
62,1,Guard 62,Guard,9526545212,heenapatel691991@gmail.com,2,0000-00-00 00:00:56,29-03-2022 19:19,1,29-03-2022 19:19,0,0,0
63,1,Guard 63,Guard,9526545212,heenapatel691991@gmail.com,2,0000-00-00 00:00:57,30-03-2022 19:19,1,30-03-2022 19:19,0,0,0
64,1,Guard 64,Guard,9526545212,heenapatel691991@gmail.com,2,0000-00-00 00:00:58,31-03-2022 19:19,1,31-03-2022 19:19,0,0,0
65,1,Guard 65,Guard,9526545212,heenapatel691991@gmail.com,2,0000-00-00 00:00:59,01-04-2022 19:19,1,01-04-2022 19:19,0,0,0
66,1,Guard 66,Guard,9526545212,heenapatel691991@gmail.com,2,0000-00-00 00:00:60,02-04-2022 19:19,1,02-04-2022 19:19,0,0,0
67,1,Guard 67,Guard,9526545212,heenapatel691991@gmail.com,2,0000-00-00 00:00:61,03-04-2022 19:19,1,03-04-2022 19:19,0,0,0
68,1,Guard 68,Guard,9526545212,heenapatel691991@gmail.com,2,0000-00-00 00:00:62,04-04-2022 19:19,1,04-04-2022 19:19,0,0,0
69,1,Guard 69,Guard,9526545212,heenapatel691991@gmail.com,2,0000-00-00 00:00:63,05-04-2022 19:19,1,05-04-2022 19:19,0,0,0
70,1,Guard 70,Guard,9526545212,heenapatel691991@gmail.com,2,0000-00-00 00:00:64,06-04-2022 19:19,1,06-04-2022 19:19,0,0,0
